CA/Full_Subtractor/sa.vcd
$date
  Fri Sep 16 21:12:24 2022
$end
$version
  GHDL v0
$end
$timescale
  1 fs
$end
$var reg 1 ! a $end
$var reg 1 " b $end
$var reg 1 # c $end
$var reg 1 $ diff $end
$var reg 1 % borr $end
$scope module full_tb $end
$var reg 1 & a $end
$var reg 1 ' b $end
$var reg 1 ( c $end
$var reg 1 ) diff $end
$var reg 1 * borr $end
$upscope $end
$enddefinitions $end
#0
X!
X"
X#
X$
X%
X&
X'
X(
X)
X*
#1000000
0!
0"
0#
0$
0%
0&
0'
0(
0)
0*
#2000000
1#
1$
1%
1(
1)
1*
#3000000
1"
0#
1'
0(
#4000000
1#
0$
1(
0)
#5000000
1!
0"
0#
1$
0%
1&
0'
0(
1)
0*
#6000000
1#
0$
1(
0)
#7000000
1"
0#
1'
0(
#8000000
1#
1$
1%
1(
1)
1*
